NPS IMD R Training I
…
If you didnt follow what I just did, there are 3 main steps that happened above. First, we used the word() function (another tidyverse function) to pull out the genus (word(Latin, 1)) and species (word(Latin, 2)). The substr() function is taking the first through third characters of each genus and species. The paste0 function is pasting the first three characters of genus and species together. The toupper is making them all capitalized. Note that the 0 after paste means not to separate the elements of the paste. If you wanted to separate the elements by a underscore, youd use paste instead of paste0, like paste(element1, element2, sep = "_").

To make this wide, were essentially going to make a pivot table using functions in tidyr (another tidyverse package). There are two functions you can use. The spread() function was original to tidyr, is what I know the best, and still performs faster on larger datasets than pivot_wider(), the replacement for spread. I show both options, so you can use whichever function makes the most sense to you.

bat_wide <- bat_long_sum %>% spread(key = "sppcode", value = "numindiv") #retired spread function
bat_wide2 <- bat_long_sum %>% pivot_wider(names_from = "sppcode", values_from = "numindiv") #replacement in tidyr
bat_wide

## # A tibble: 21 x 6
##    Site        Year LASCIN MYOLEI MYOLUC MYOSEP
##    <chr>      <int>  <int>  <int>  <int>  <int>
##  1 BrownMtnCR  2013     NA      1     NA     NA
##  2 BrownMtnCR  2014     NA     NA      2     NA
##  3 BrownMtnCR  2015     NA      2     NA     NA
##  4 BrownMtnCR  2016      1      2      1     NA
##  5 BrownMtnCR  2017     NA      1      1     NA
##  6 BrownMtnCR  2018     NA      1     NA      1
##  7 BrownMtnCR  2019      1     NA     NA     NA
##  8 BrownMtnGH  2013     NA     NA     NA      1
##  9 BrownMtnGH  2014     NA      2      1     NA
## 10 BrownMtnGH  2015      1     NA     NA      1
## # ... with 11 more rows
…
